{
  "tokenId": "xxx",
  "transactionId": "1364",
  "promotions": [
    {
      "promotionId": "MP/ADIDAS/0601",
      "bannerUrl": "http://203.186.102.210:8080/sites/default/files/App-06.png",
      "shortDescription": "adidas 九折購物優惠",
      "sequence": "1",
      "promotionUrl": "http://203.186.102.210:8080/sites/default/files/App-08.png"
    },
    {
      "promotionId": "MP/SIMMONS/0601",
      "bannerUrl": "http://203.186.102.210:8080/sites/default/files/App-07.png",
      "shortDescription": "蓆夢思®購物優惠",
      "sequence": "2",
      "promotionUrl": "http://203.186.102.210:8080/sites/default/files/App-09.png"
    }
  ]
}