{
  "tokenId": "xxx",
  "transactionId": "1157",
  "productDetails": [
    {
      "model": "V5-573PG-54208G50amm",
      "itemNo": "19283",
      "price": "HKD 670",
      "imageUrl": "http://203.186.102.210:8080/sites/default/files/styles/product_165x99/public/images/products/g822858a.jpg",
      "sequence": "1",
      "categoryId": "103",
      "brand": "ACER"
    },
    {
      "model": "TAICHI21-CW001H",
      "itemNo": "13239",
      "price": "HKD 4,384",
      "imageUrl": "http://203.186.102.210:8080/sites/default/files/styles/product_165x99/public/images/products/g821565a.jpg",
      "sequence": "2",
      "categoryId": "103",
      "brand": "ASUS"
    },
    {
      "model": "INS 15RS-R3238S",
      "itemNo": "15817",
      "price": "HKD 9,408",
      "imageUrl": "http://203.186.102.210:8080/sites/default/files/styles/product_165x99/public/images/products/g822156a.jpg",
      "sequence": "3",
      "categoryId": "103",
      "brand": "DELL"
    },
    {
      "model": "FLEX2 14 59-422176",
      "itemNo": "24742",
      "price": "HKD 561",
      "imageUrl": "http://203.186.102.210:8080/sites/default/files/styles/product_165x99/public/images/products/g823997a.jpg",
      "sequence": "4",
      "categoryId": "103",
      "brand": "LENOVO"
    },
    {
      "model": "YOGA2-13 59-419903",
      "itemNo": "25347",
      "price": "HKD 9,866",
      "imageUrl": "http://203.186.102.210:8080/sites/default/files/styles/product_165x99/public/images/products/g824080a.jpg",
      "sequence": "5",
      "categoryId": "103",
      "brand": "LENOVO"
    },
    {
      "model": "NP270E5J-X02HK",
      "itemNo": "26201",
      "price": "HKD 3,572",
      "imageUrl": "http://203.186.102.210:8080/sites/default/files/styles/product_165x99/public/images/products/g824274a.jpg",
      "sequence": "6",
      "categoryId": "103",
      "brand": "SAMSUNG"
    },
    {
      "model": "NP270E5J-X02HK",
      "itemNo": "26201",
      "price": "HKD 3,572",
      "imageUrl": "http://203.186.102.210:8080/sites/default/files/styles/product_165x99/public/images/products/g824274a.jpg",
      "sequence": "7",
      "categoryId": "103",
      "brand": "SAMSUNG"
    },
    {
      "model": "NP900X3G-K05HK",
      "itemNo": "26204",
      "price": "HKD 2,711",
      "imageUrl": "http://203.186.102.210:8080/sites/default/files/styles/product_165x99/public/images/products/g824277a.jpg",
      "sequence": "8",
      "categoryId": "103",
      "brand": "SAMSUNG"
    }
  ]
}