{
  "tokenId": "xxx",
  "transactionId": "1156",
  "productDetails": [
    {
      "model": "D7100 BODY",
      "itemNo": "15955",
      "price": "HKD 995",
      "imageUrl": "http://203.186.102.210:8080/sites/default/files/styles/product_165x99/public/images/products/a106831a.jpg",
      "sequence": "1",
      "categoryId": "105",
      "brand": "NIKON"
    },
    {
      "model": "HERO3+ SILVER EDITIO",
      "itemNo": "21848",
      "price": "HKD 8,362",
      "imageUrl": "http://203.186.102.210:8080/sites/default/files/styles/product_165x99/public/images/products/a107237a.jpg",
      "sequence": "1",
      "categoryId": "105",
      "brand": "GOPRO"
    },
    {
      "model": "EOS-5D MARK III KIT",
      "itemNo": "8416",
      "price": "HKD 9,293",
      "imageUrl": "http://203.186.102.210:8080/sites/default/files/styles/product_165x99/public/images/products/5dmarkiii(1mb).jpg",
      "sequence": "2",
      "categoryId": "105",
      "brand": "CANON"
    },
    {
      "model": "D7100 KIT",
      "itemNo": "15957",
      "price": "HKD 6,510",
      "imageUrl": "http://203.186.102.210:8080/sites/default/files/styles/product_165x99/public/images/products/a106833a.jpg",
      "sequence": "2",
      "categoryId": "105",
      "brand": "NIKON"
    },
    {
      "model": "EOS-6D KIT",
      "itemNo": "13014",
      "price": "HKD 7,288",
      "imageUrl": "http://203.186.102.210:8080/sites/default/files/styles/product_165x99/public/images/products/a106629a.jpg",
      "sequence": "3",
      "categoryId": "105",
      "brand": "CANON"
    },
    {
      "model": "D7100 KIT",
      "itemNo": "15957",
      "price": "HKD 6,510",
      "imageUrl": "http://203.186.102.210:8080/sites/default/files/styles/product_165x99/public/images/products/a106833a.jpg",
      "sequence": "4",
      "categoryId": "105",
      "brand": "NIKON"
    },
    {
      "model": "EOS-1DX",
      "itemNo": "13682",
      "price": "HKD 6,839",
      "imageUrl": "http://203.186.102.210:8080/sites/default/files/styles/product_165x99/public/images/products/a106355.jpg",
      "sequence": "5",
      "categoryId": "105",
      "brand": "CANON"
    },
    {
      "model": "EOS-5D MARK III",
      "itemNo": "13625",
      "price": "HKD 9,441",
      "imageUrl": "http://203.186.102.210:8080/sites/default/files/styles/product_165x99/public/images/products/a106120.jpg",
      "sequence": "6",
      "categoryId": "105",
      "brand": "CANON"
    }
  ]
}