{
  "mapLatitude": "22.280226",
  "phoneNo": "(852) 3427 9819",
  "mtrExit": "銅鑼灣 (E 出口)",
  "openingHour": "11:30AM-10:30PM (星期日至四)\r\n11:30AM-11:00PM (星期五、六)",
  "districtId": "109",
  "tokenId": "xxx",
  "transactionId": "1158",
  "address": "百德新街恒隆中心地庫",
  "shopUrl": "http://203.186.102.210:8080/sites/default/files/images/shops/S19Basement_497x295.jpg",
  "shopNo": "576",
  "mapLongitude": "114.185937"
}